rcrossref introduction • rOpenSci: rcrossref
…
Search license information

cr_licenses(query = 'elsevier')
#> $meta
#>   total_results search_terms start_index items_per_page
#> 1            39     elsevier           0             20
#> 
#> $data
#> # A tibble: 39 x 2
#>    URL                                                      work.count
#>    <chr>                                                         <int>
#>  1 http://aspb.org/publications/aspb-journals/open-articles          1
#>  2 http://creativecommons.org/licenses/by-nc-nd/3.0/                11
#>  3 http://creativecommons.org/licenses/by-nc-nd/4.0/                16
#>  4 http://creativecommons.org/licenses/by-nc/4.0/                    4
#>  5 http://creativecommons.org/licenses/by/2.0                        2
#>  6 http://creativecommons.org/licenses/by/3.0/                       1
#>  7 http://creativecommons.org/licenses/by/3.0/igo/                   1
#>  8 http://creativecommons.org/licenses/by/4.0                        9
#>  9 http://creativecommons.org/licenses/by/4.0/                      16
#> 10 http://doi.wiley.com/10.1002/tdm_license_1                      136
#> # … with 29 more rows
…
From the output of cr_works we can get full text links if we know where to look:

do.call("rbind", out$data$link)
#> # A tibble: 40 x 4
#>    URL                            content.type content.version intended.applica…
#>    <chr>                          <chr>        <chr>           <chr>            
#>  1 https://api.elsevier.com/cont… text/xml     vor             text-mining      
#>  2 https://api.elsevier.com/cont… text/plain   vor             text-mining      
#>  3 https://api.elsevier.com/cont… text/xml     vor             text-mining      
#>  4 https://api.elsevier.com/cont… text/plain   vor             text-mining      
#>  5 https://api.elsevier.com/cont… text/xml     vor             text-mining      
#>  6 https://api.elsevier.com/cont… text/plain   vor             text-mining      
#>  7 https://api.elsevier.com/cont… text/xml     vor             text-mining      
#>  8 https://api.elsevier.com/cont… text/plain   vor             text-mining      
#>  9 https://api.elsevier.com/cont… text/xml     vor             text-mining      
#> 10 https://api.elsevier.com/cont… text/plain   vor             text-mining      
#> # … with 30 more rows
…
